{
	"images": {
		"name": "menu.images",
		"items": {
			"images": "permissions.list",
			"empty.add": "",
			"empty.edit": "",
			"image-delete": "permissions.delete",
			"empty.send": ""
		}
	},
	"dashboard": {
		"name": "menu.dashboard",
		"items": {
			"dashboard": "permissions.list",
			"empty.add": "",
			"empty.edit": "",
			"empty.delete": "",
			"empty.send": ""
		}

	},
	"content": {
		"name": "menu.content",
		"items": {
			"content": "permissions.list",
			"content-add": "permissions.add",
			"content-edit": "permissions.edit",
			"content-delete": "permissions.delete",
			"empty.send": ""
		}
	},
	"types": {
		"name": "menu.types",
		"items": {
			"types": "permissions.list",
			"type-add": "permissions.add",
			"type-edit": "permissions.edit",
			"empty-delete": "",
			"empty.send": ""
		}
	},
	"localization": {
		"name": "menu.localization",
		"items": {
			"localization": "permissions.list",
			"empty.add": "",
			"localization-edit": "permissions.edit",
			"empty.delete": "",
			"empty.send": ""
		}
	},
	"emails": {
		"name": "menu.emails",
		"items": {
			"emails": "permissions.list",
			"empty.add": "",
			"empty.edit": "",
			"empty.delete": "",
			"email-send": "permissions.send"
		}
	}
}